[
  {
    "user": {
      "screen_name": "atakanguney2",
      "id_str": "1006544304217755649",
      "lang": "tr"
    },
    "categories": {
      "content": 0.9151476120324565,
      "friend": 0.9133207540621731,
      "network": 0.9541545921486412,
      "sentiment": 0.7506754251442619,
      "temporal": 0.8752843651987218,
      "user": 0.9374187647265102
    },
    "score": 0.9605484476373263,
    "scores": {
      "english": 0.9491151251673986,
      "universal": 0.9605484476373263
    },
    "capScore": 0.9137095310872202,
    "cap": {
      "english": 0.9042706647192291,
      "universal": 0.9137095310872202
    }
  },
  {
    "user": {
      "screen_name": "RTErdogan",
      "id_str": "68034431",
      "lang": "tr"
    },
    "categories": {
      "content": 0.13252377443365895,
      "friend": 0.10612616098731911,
      "network": 0.08358138135822211,
      "sentiment": 0.09212893023754924,
      "temporal": 0.14544780813699823,
      "user": 0.02392906059496764
    },
    "score": 0.04811366570775446,
    "scores": {
      "english": 0.04178983547133819,
      "universal": 0.04811366570775446
    },
    "capScore": 0.0023079208238384373,
    "cap": {
      "english": 0.0016347149115980926,
      "universal": 0.0023079208238384373
    }
  },
  {
    "user": {
      "screen_name": "shaaban_ghonemy",
      "id_str": "811527294246354944",
      "lang": "ar"
    },
    "categories": {
      "content": 0.925376551506487,
      "friend": 0.9136223598156034,
      "network": 0.9024272630984311,
      "sentiment": 0.929111844201366,
      "temporal": 0.845608000205838,
      "user": 0.8819524564335114
    },
    "score": 0.7248402160410153,
    "scores": {
      "english": 0.8495856011768973,
      "universal": 0.7248402160410153
    },
    "capScore": 0.3254134937439308,
    "cap": {
      "english": 0.6159726892215056,
      "universal": 0.3254134937439308
    }
  },
  {
    "user": {
      "screen_name": "ilbayy",
      "id_str": "184724143",
      "lang": "tr"
    },
    "categories": {
      "content": 0.8838328599992241,
      "friend": 0.7594616003286809,
      "network": 0.6949929807348296,
      "sentiment": 0.5106788339308113,
      "temporal": 0.9201521175653773,
      "user": 0.7614881999710486
    },
    "score": 0.7248402160410153,
    "scores": {
      "english": 0.8601677371481485,
      "universal": 0.7248402160410153
    },
    "capScore": 0.3254134937439308,
    "cap": {
      "english": 0.6411460843222053,
      "universal": 0.3254134937439308
    }
  },
  {
    "user": {
      "screen_name": "44_maltya",
      "id_str": "4832585578",
      "lang": "tr"
    },
    "categories": {
      "content": 0.9300548899657002,
      "friend": 0.6931671803923964,
      "network": 0.9044902815545797,
      "sentiment": 0.7126698432322394,
      "temporal": 0.7693523837248406,
      "user": 0.4810612908215737
    },
    "score": 0.5565870373496533,
    "scores": {
      "english": 0.5274968237537414,
      "universal": 0.5565870373496533
    },
    "capScore": 0.13065598435976788,
    "cap": {
      "english": 0.11046376827194711,
      "universal": 0.13065598435976788
    }
  },
  {
    "user": {
      "screen_name": "Emretkmk1",
      "id_str": "1181815751386238976",
      "lang": "tr"
    },
    "categories": {
      "content": 0.9639245827025941,
      "friend": 0.8757906300582717,
      "network": 0.9372060316217887,
      "sentiment": 0.8283931994589812,
      "temporal": 0.9325223445308555,
      "user": 0.9497188594610967
    },
    "score": 0.9206457832445352,
    "scores": {
      "english": 0.9736247158244454,
      "universal": 0.9206457832445352
    },
    "capScore": 0.7936717511946978,
    "cap": {
      "english": 0.958167114593664,
      "universal": 0.7936717511946978
    }
  },
  {
    "user": {
      "screen_name": "aldemir_mavi",
      "id_str": "1181081722391281664",
      "lang": "tr"
    },
    "categories": {
      "content": 0.9425077174548213,
      "friend": 0.5362971574454242,
      "network": 0.9451332228021796,
      "sentiment": 0.8915815586257704,
      "temporal": 0.9553956626551423,
      "user": 0.6675474367262662
    },
    "score": 0.8358285757752799,
    "scores": {
      "english": 0.8601677371481485,
      "universal": 0.8358285757752799
    },
    "capScore": 0.5591583735107447,
    "cap": {
      "english": 0.6411460843222053,
      "universal": 0.5591583735107447
    }
  },
  {
    "user": {
      "screen_name": "bbyavuz1661",
      "id_str": "751107501995724800",
      "lang": "tr"
    },
    "categories": {
      "content": 0.9204120755415666,
      "friend": 0.16863713142666406,
      "network": 0.8070225347710263,
      "sentiment": 0.8780207807991686,
      "temporal": 0.8535286114881314,
      "user": 0.9418026024353243
    },
    "score": 0.5768086562548855,
    "scores": {
      "english": 0.6109757209767682,
      "universal": 0.5768086562548855
    },
    "capScore": 0.14577620294303828,
    "cap": {
      "english": 0.18036203754175442,
      "universal": 0.14577620294303828
    }
  },
  {
    "user": {
      "screen_name": "yenerdurak07",
      "id_str": "4030098263",
      "lang": "tr"
    },
    "categories": {
      "content": 0.8334831267559633,
      "friend": 0.2975815402664562,
      "network": 0.22427046334856154,
      "sentiment": 0.6846462332975961,
      "temporal": 0.6836815670226412,
      "user": 0.9597053361519627
    },
    "score": 0.33655519548719853,
    "scores": {
      "english": 0.5697317833219949,
      "universal": 0.33655519548719853
    },
    "capScore": 0.038677030425236264,
    "cap": {
      "english": 0.14157391067567082,
      "universal": 0.038677030425236264
    }
  },
  {
    "user": {
      "screen_name": "Selahat24076774",
      "id_str": "1146135466376404992",
      "lang": "tr"
    },
    "categories": {
      "content": 0.9300548899657002,
      "friend": 0.5857204380116393,
      "network": 0.9044902815545797,
      "sentiment": 0.12401293195790808,
      "temporal": 0.9075900666606278,
      "user": 0.9626027569370663
    },
    "score": 0.6483257636104942,
    "scores": {
      "english": 0.9178878139616656,
      "universal": 0.6483257636104942
    },
    "capScore": 0.21389913127226926,
    "cap": {
      "english": 0.8084010052792807,
      "universal": 0.21389913127226926
    }
  },
  {
    "user": {
      "screen_name": "Burak78912876",
      "id_str": "1181881815113650176",
      "lang": "tr"
    },
    "categories": {
      "content": 0.876473536481824,
      "friend": 0.9136223598156034,
      "network": 0.9542848332608309,
      "sentiment": 0.9245987622377488,
      "temporal": 0.9603904708957612,
      "user": 0.8736650398017887
    },
    "score": 0.5361761477678701,
    "scores": {
      "english": 0.7238002465135849,
      "universal": 0.5361761477678701
    },
    "capScore": 0.11693596663244112,
    "cap": {
      "english": 0.3528904417922491,
      "universal": 0.11693596663244112
    }
  },
  {
    "user": {
      "screen_name": "maxamed_uud",
      "id_str": "1181881303618244608",
      "lang": "in"
    },
    "categories": {
      "content": 0.9182558075393485,
      "friend": 0.9136223598156034,
      "network": 0.8803155785148558,
      "sentiment": 0.44326481194077955,
      "temporal": 0.9338450119785222,
      "user": 0.9626027569370663
    },
    "score": 0.11662792689320306,
    "scores": {
      "english": 0.8701191997119831,
      "universal": 0.11662792689320306
    },
    "capScore": 0.005575180064318956,
    "cap": {
      "english": 0.6662767818190388,
      "universal": 0.005575180064318956
    }
  },
  {
    "user": {
      "screen_name": "LeylaKk06292520",
      "id_str": "1177504163388739584",
      "lang": "tr"
    },
    "categories": {
      "content": 0.9344607038133298,
      "friend": 0.9136223598156034,
      "network": 0.8803155785148558,
      "sentiment": 0.9646208038335259,
      "temporal": 0.9338450119785222,
      "user": 0.9626027569370663
    },
    "score": 0.11662792689320306,
    "scores": {
      "english": 0.6884177623265628,
      "universal": 0.11662792689320306
    },
    "capScore": 0.005575180064318956,
    "cap": {
      "english": 0.28686866458066024,
      "universal": 0.005575180064318956
    }
  },
  {
    "user": {
      "screen_name": "AhmetBu42902529",
      "id_str": "1181850923901050880",
      "lang": "und"
    },
    "categories": {
      "content": 0.9101067207817184,
      "friend": 0.9136223598156034,
      "network": 0.9114359184790485,
      "sentiment": 0.44326481194077955,
      "temporal": 0.9338450119785222,
      "user": 0.9626027569370663
    },
    "score": 0.9726400642588404,
    "scores": {
      "english": 0.9470261822603973,
      "universal": 0.9726400642588404
    },
    "capScore": 0.9420072835844814,
    "cap": {
      "english": 0.8985342530509495,
      "universal": 0.9420072835844814
    }
  },
  {
    "user": {
      "screen_name": "AliHMohammed7",
      "id_str": "1181879492144500736",
      "lang": "en"
    },
    "categories": {
      "content": 0.9684760170566893,
      "friend": 0.9136223598156034,
      "network": 0.9114359184790485,
      "sentiment": 0.959783560723653,
      "temporal": 0.9338450119785222,
      "user": 0.9626027569370663
    },
    "score": 0.9875875115922786,
    "scores": {
      "english": 0.9875875115922786,
      "universal": 0.9726400642588404
    },
    "capScore": 0.9766339623971294,
    "cap": {
      "english": 0.9766339623971294,
      "universal": 0.9420072835844814
    }
  },
  {
    "user": {
      "screen_name": "akbulutbaris_61",
      "id_str": "1140045654468771841",
      "lang": "en"
    },
    "categories": {
      "content": 0.7135417689682637,
      "friend": 0.9136223598156034,
      "network": 0.9114359184790485,
      "sentiment": 0.44326481194077955,
      "temporal": 0.9338450119785222,
      "user": 0.9626027569370663
    },
    "score": 0.9776703489269076,
    "scores": {
      "english": 0.9776703489269076,
      "universal": 0.9726400642588404
    },
    "capScore": 0.9644187855497658,
    "cap": {
      "english": 0.9644187855497658,
      "universal": 0.9420072835844814
    }
  },
  {
    "user": {
      "screen_name": "bubble_bubu",
      "id_str": "1180173393758494720",
      "lang": "tr"
    },
    "categories": {
      "content": 0.9496199744583083,
      "friend": 0.7830678572164844,
      "network": 0.9451332228021796,
      "sentiment": 0.4774010771733719,
      "temporal": 0.9435526027021468,
      "user": 0.855595507026146
    },
    "score": 0.9500427150733608,
    "scores": {
      "english": 0.9298669453061029,
      "universal": 0.9500427150733608
    },
    "capScore": 0.8850402072644973,
    "cap": {
      "english": 0.8469348665516686,
      "universal": 0.8850402072644973
    }
  },
  {
    "user": {
      "screen_name": "ciltbir",
      "id_str": "1129467575543521280",
      "lang": "tr"
    },
    "categories": {
      "content": 0.9344607038133298,
      "friend": 0.9136223598156034,
      "network": 0.9114359184790485,
      "sentiment": 0.959783560723653,
      "temporal": 0.9338450119785222,
      "user": 0.9626027569370663
    },
    "score": 0.9726400642588404,
    "scores": {
      "english": 0.960149429127191,
      "universal": 0.9726400642588404
    },
    "capScore": 0.9420072835844814,
    "cap": {
      "english": 0.9318137107770661,
      "universal": 0.9420072835844814
    }
  },
  {
    "user": {
      "screen_name": "sinemyaavuz",
      "id_str": "1176224289042960391",
      "lang": "tr"
    },
    "categories": {
      "content": 0.5904883432799594,
      "friend": 0.7072200466253774,
      "network": 0.9044902815545797,
      "sentiment": 0.44326481194077955,
      "temporal": 0.9075900666606278,
      "user": 0.9626027569370663
    },
    "score": 0.8432249528798288,
    "scores": {
      "english": 0.960149429127191,
      "universal": 0.8432249528798288
    },
    "capScore": 0.5768905710705432,
    "cap": {
      "english": 0.9318137107770661,
      "universal": 0.5768905710705432
    }
  },
  {
    "user": {
      "screen_name": "biyoekonomi",
      "id_str": "833050782249390080",
      "lang": "en"
    },
    "categories": {
      "content": 0.9662743212665776,
      "friend": 0.8960434194268955,
      "network": 0.9528253808159977,
      "sentiment": 0.9646208038335259,
      "temporal": 0.8103997213941866,
      "user": 0.9597053361519627
    },
    "score": 0.9736247158244454,
    "scores": {
      "english": 0.9736247158244454,
      "universal": 0.9689171666559734
    },
    "capScore": 0.958167114593664,
    "cap": {
      "english": 0.958167114593664,
      "universal": 0.9338800752142018
    }
  },
  {
    "user": {
      "screen_name": "ATILLAH06169412",
      "id_str": "1181877067555708928",
      "lang": "tr"
    },
    "categories": {
      "content": 0.9614176697573135,
      "friend": 0.9136223598156034,
      "network": 0.8803155785148558,
      "sentiment": 0.9411933966292786,
      "temporal": 0.9435526027021468,
      "user": 0.7614881999710486
    },
    "score": 0.6164280626387617,
    "scores": {
      "english": 0.9240939964164224,
      "universal": 0.6164280626387617
    },
    "capScore": 0.18030310025096605,
    "cap": {
      "english": 0.8284585039985664,
      "universal": 0.18030310025096605
    }
  },
  {
    "user": {
      "screen_name": "PAPA20201180",
      "id_str": "1180150983378137090",
      "lang": "hi"
    },
    "categories": {
      "content": 0.7135417689682637,
      "friend": 0.19869669732913162,
      "network": 0.2350108345196892,
      "sentiment": 0.8978525314739335,
      "temporal": 0.27589464844196043,
      "user": 0.7009224071240124
    },
    "score": 0.25152334764543,
    "scores": {
      "english": 0.32230602190830704,
      "universal": 0.25152334764543
    },
    "capScore": 0.021041094138717433,
    "cap": {
      "english": 0.032183220269696264,
      "universal": 0.021041094138717433
    }
  },
  {
    "user": {
      "screen_name": "hatice39533731",
      "id_str": "1080812828280393730",
      "lang": "tr"
    },
    "categories": {
      "content": 0.9614176697573135,
      "friend": 0.6018678601737769,
      "network": 0.9372060316217887,
      "sentiment": 0.6700956285826207,
      "temporal": 0.5067216665238702,
      "user": 0.8130600669454235
    },
    "score": 0.8572017689651149,
    "scores": {
      "english": 0.9448325758058531,
      "universal": 0.8572017689651149
    },
    "capScore": 0.611464313617347,
    "cap": {
      "english": 0.8923552459086453,
      "universal": 0.611464313617347
    }
  },
  {
    "user": {
      "screen_name": "SlhoztutuncuY",
      "id_str": "3045755607",
      "lang": "tr"
    },
    "categories": {
      "content": 0.946174528632784,
      "friend": 0.9136223598156034,
      "network": 0.8803155785148558,
      "sentiment": 0.7391519550142258,
      "temporal": 0.9435526027021468,
      "user": 0.6675474367262662
    },
    "score": 0.29698117478747543,
    "scores": {
      "english": 0.7238002465135849,
      "universal": 0.29698117478747543
    },
    "capScore": 0.029636512313009154,
    "cap": {
      "english": 0.3528904417922491,
      "universal": 0.029636512313009154
    }
  },
  {
    "user": {
      "screen_name": "Yunusdmr16",
      "id_str": "833438815",
      "lang": "tr"
    },
    "categories": {
      "content": 0.9386073163011215,
      "friend": 0.9136223598156034,
      "network": 0.9114359184790485,
      "sentiment": 0.7971500061264685,
      "temporal": 0.9603904708957612,
      "user": 0.9040382507554688
    },
    "score": 0.9500427150733608,
    "scores": {
      "english": 0.9402123048447205,
      "universal": 0.9500427150733608
    },
    "capScore": 0.8850402072644973,
    "cap": {
      "english": 0.8788741546291176,
      "universal": 0.8850402072644973
    }
  },
  {
    "user": {
      "screen_name": "BatmanSpe",
      "id_str": "964406181644050437",
      "lang": "tr"
    },
    "categories": {
      "content": 0.8908083596949135,
      "friend": 0.5362971574454242,
      "network": 0.5388303070061033,
      "sentiment": 0.9245987622377488,
      "temporal": 0.2403281187415198,
      "user": 0.538941031882933
    },
    "score": 0.5156433305312286,
    "scores": {
      "english": 0.5061919589474342,
      "universal": 0.5156433305312286
    },
    "capScore": 0.10460347933351005,
    "cap": {
      "english": 0.09741389119048932,
      "universal": 0.10460347933351005
    }
  },
  {
    "user": {
      "screen_name": "ahinErik2",
      "id_str": "1164756374862958593",
      "lang": "tr"
    },
    "categories": {
      "content": 0.501354771071412,
      "friend": 0.815250091706861,
      "network": 0.9408464221632173,
      "sentiment": 0.8549607089337135,
      "temporal": 0.8683587729847456,
      "user": 0.7884215012480346
    },
    "score": 0.6908019160064479,
    "scores": {
      "english": 0.8138717339737572,
      "universal": 0.6908019160064479
    },
    "capScore": 0.26968322684725654,
    "cap": {
      "english": 0.5387761106184944,
      "universal": 0.26968322684725654
    }
  },
  {
    "user": {
      "screen_name": "alithebeast6",
      "id_str": "1099425198682619904",
      "lang": "tr"
    },
    "categories": {
      "content": 0.8687172428906028,
      "friend": 0.9136223598156034,
      "network": 0.8997174107027444,
      "sentiment": 0.9171993204115726,
      "temporal": 0.9435526027021468,
      "user": 0.9040382507554688
    },
    "score": 0.8572017689651149,
    "scores": {
      "english": 0.826453203646374,
      "universal": 0.8572017689651149
    },
    "capScore": 0.611464313617347,
    "cap": {
      "english": 0.5650534221025286,
      "universal": 0.611464313617347
    }
  },
  {
    "user": {
      "screen_name": "abdulkerimgen5",
      "id_str": "1181824358689525760",
      "lang": "tr"
    },
    "categories": {
      "content": 0.9614176697573135,
      "friend": 0.35639819820246477,
      "network": 0.8931223244287536,
      "sentiment": 0.929111844201366,
      "temporal": 0.9509355786791227,
      "user": 0.8130600669454235
    },
    "score": 0.9459854875837471,
    "scores": {
      "english": 0.960149429127191,
      "universal": 0.9459854875837471
    },
    "capScore": 0.8731487918871739,
    "cap": {
      "english": 0.9318137107770661,
      "universal": 0.8731487918871739
    }
  },
  {
    "user": {
      "screen_name": "Nihat_cskn",
      "id_str": "1413444733",
      "lang": "tr"
    },
    "categories": {
      "content": 0.946174528632784,
      "friend": 0.9136223598156034,
      "network": 0.802294742346324,
      "sentiment": 0.44326481194077955,
      "temporal": 0.936574742911375,
      "user": 0.8010272684461975
    },
    "score": 0.3184188561317807,
    "scores": {
      "english": 0.7064204238004218,
      "universal": 0.3184188561317807
    },
    "capScore": 0.03435849422907052,
    "cap": {
      "english": 0.31925820414416145,
      "universal": 0.03435849422907052
    }
  },
  {
    "user": {
      "screen_name": "Yusuf09899560",
      "id_str": "1181878688662659078",
      "lang": "tr"
    },
    "categories": {
      "content": 0.9639245827025941,
      "friend": 0.9136223598156034,
      "network": 0.8997174107027444,
      "sentiment": 0.9373976589121485,
      "temporal": 0.8882002957327816,
      "user": 0.6844727333491438
    },
    "score": 0.7564524646655568,
    "scores": {
      "english": 0.8495856011768973,
      "universal": 0.7564524646655568
    },
    "capScore": 0.38545888128841016,
    "cap": {
      "english": 0.6159726892215056,
      "universal": 0.38545888128841016
    }
  },
  {
    "user": {
      "screen_name": "bozkurtbucak1",
      "id_str": "1181877722357870592",
      "lang": "tr"
    },
    "categories": {
      "content": 0.9496199744583083,
      "friend": 0.6931671803923964,
      "network": 0.9451332228021796,
      "sentiment": 0.44326481194077955,
      "temporal": 0.9521067771737771,
      "user": 0.9566079256069624
    },
    "score": 0.9500427150733608,
    "scores": {
      "english": 0.9385932669493788,
      "universal": 0.9500427150733608
    },
    "capScore": 0.8850402072644973,
    "cap": {
      "english": 0.8740174016720004,
      "universal": 0.8850402072644973
    }
  },
  {
    "user": {
      "screen_name": "Bare59659850",
      "id_str": "1154117720939671553",
      "lang": "fa"
    },
    "categories": {
      "content": 0.8534251561441912,
      "friend": 0.9136223598156034,
      "network": 0.8997174107027444,
      "sentiment": 0.44326481194077955,
      "temporal": 0.9338450119785222,
      "user": 0.9626027569370663
    },
    "score": 0.9128880255517094,
    "scores": {
      "english": 0.826453203646374,
      "universal": 0.9128880255517094
    },
    "capScore": 0.7690934561516563,
    "cap": {
      "english": 0.5650534221025286,
      "universal": 0.7690934561516563
    }
  },
  {
    "user": {
      "screen_name": "Nurgul69418583",
      "id_str": "1181878006383566848",
      "lang": "und"
    },
    "categories": {
      "content": 0.8430838108226466,
      "friend": 0.9136223598156034,
      "network": 0.9114359184790485,
      "sentiment": 0.44326481194077955,
      "temporal": 0.9338450119785222,
      "user": 0.9626027569370663
    },
    "score": 0.9726400642588404,
    "scores": {
      "english": 0.8344132986249644,
      "universal": 0.9726400642588404
    },
    "capScore": 0.9420072835844814,
    "cap": {
      "english": 0.5820825129374635,
      "universal": 0.9420072835844814
    }
  },
  {
    "user": {
      "screen_name": "erencayirx",
      "id_str": "4885416910",
      "lang": "tr&tr&und"
    },
    "categories": {
      "content": 0.7412013473018372,
      "friend": 0.9136223598156034,
      "network": 0.9114359184790485,
      "sentiment": 0.44326481194077955,
      "temporal": 0.9603904708957612,
      "user": 0.8648849461833528
    },
    "score": 0.9318767534287423,
    "scores": {
      "english": 0.8601677371481485,
      "universal": 0.9318767534287423
    },
    "capScore": 0.8294998725518729,
    "cap": {
      "english": 0.6411460843222053,
      "universal": 0.8294998725518729
    }
  },
  {
    "user": {
      "screen_name": "OsmanlGenel",
      "id_str": "1181860722848014336",
      "lang": "tr"
    },
    "categories": {
      "content": 0.8334831267559633,
      "friend": 0.7072200466253774,
      "network": 0.855365907353284,
      "sentiment": 0.7640015609838375,
      "temporal": 0.8611096213916619,
      "user": 0.538941031882933
    },
    "score": 0.5768086562548855,
    "scores": {
      "english": 0.7405291005715704,
      "universal": 0.5768086562548855
    },
    "capScore": 0.14577620294303828,
    "cap": {
      "english": 0.3868425932473016,
      "universal": 0.14577620294303828
    }
  },
  {
    "user": {
      "screen_name": "erdal_turgut",
      "id_str": "717560203",
      "lang": "tr"
    },
    "categories": {
      "content": 0.8132006900612991,
      "friend": 0.5196129601812253,
      "network": 0.6412244274526366,
      "sentiment": 0.7391519550142258,
      "temporal": 0.8882002957327816,
      "user": 0.9742729834320274
    },
    "score": 0.6545596461071505,
    "scores": {
      "english": 0.8701191997119831,
      "universal": 0.6545596461071505
    },
    "capScore": 0.22121616027906205,
    "cap": {
      "english": 0.6662767818190388,
      "universal": 0.22121616027906205
    }
  },
  {
    "user": {
      "screen_name": "cnyt_byr",
      "id_str": "1093297347608657925",
      "lang": "tr"
    },
    "categories": {
      "content": 0.1494079271182809,
      "friend": 0.46944686570330113,
      "network": 0.17587382879766314,
      "sentiment": 0.2644995892927827,
      "temporal": 0.17011723580511243,
      "user": 0.15461025807313558
    },
    "score": 0.33655519548719853,
    "scores": {
      "english": 0.3039573320934062,
      "universal": 0.33655519548719853
    },
    "capScore": 0.038677030425236264,
    "cap": {
      "english": 0.028225552221050176,
      "universal": 0.038677030425236264
    }
  },
  {
    "user": {
      "screen_name": "Qudret42875354",
      "id_str": "1181877313690112000",
      "lang": "und"
    },
    "categories": {
      "content": 0.9101067207817184,
      "friend": 0.9136223598156034,
      "network": 0.9114359184790485,
      "sentiment": 0.44326481194077955,
      "temporal": 0.9338450119785222,
      "user": 0.9626027569370663
    },
    "score": 0.9726400642588404,
    "scores": {
      "english": 0.9470261822603973,
      "universal": 0.9726400642588404
    },
    "capScore": 0.9420072835844814,
    "cap": {
      "english": 0.8985342530509495,
      "universal": 0.9420072835844814
    }
  },
  {
    "user": {
      "screen_name": "uOmjOQRh5WPusMT",
      "id_str": "1181877542107656192",
      "lang": "ar"
    },
    "categories": {
      "content": 0.9614176697573135,
      "friend": 0.734158617497019,
      "network": 0.9316225976290802,
      "sentiment": 0.12227177988179642,
      "temporal": 0.9549533186740272,
      "user": 0.8245245941131142
    },
    "score": 0.9416190049861709,
    "scores": {
      "english": 0.9298669453061029,
      "universal": 0.9416190049861709
    },
    "capScore": 0.8599563872510622,
    "cap": {
      "english": 0.8469348665516686,
      "universal": 0.8599563872510622
    }
  },
  {
    "user": {
      "screen_name": "nedarha",
      "id_str": "306039911",
      "lang": "en"
    },
    "categories": {
      "content": 0.6689162873350485,
      "friend": 0.9136223598156034,
      "network": 0.8803155785148558,
      "sentiment": 0.36433814046959456,
      "temporal": 0.8683587729847456,
      "user": 0.3682960582889338
    },
    "score": 0.40086139116347386,
    "scores": {
      "english": 0.40086139116347386,
      "universal": 0.4744885412906753
    },
    "capScore": 0.05272348371475359,
    "cap": {
      "english": 0.05272348371475359,
      "universal": 0.08385114734671234
    }
  },
  {
    "user": {
      "screen_name": "mhmmtozen",
      "id_str": "1072234452049453056",
      "lang": "tr"
    },
    "categories": {
      "content": 0.9151476120324565,
      "friend": 0.9136223598156034,
      "network": 0.8997174107027444,
      "sentiment": 0.9171993204115726,
      "temporal": 0.9526782215068578,
      "user": 0.7752411910305135
    },
    "score": 0.7081126267613624,
    "scores": {
      "english": 0.8964140695210783,
      "universal": 0.7081126267613624
    },
    "capScore": 0.29676876603976116,
    "cap": {
      "english": 0.7405226576973513,
      "universal": 0.29676876603976116
    }
  },
  {
    "user": {
      "screen_name": "Csmm47636864",
      "id_str": "1181877839773278208",
      "lang": "tr"
    },
    "categories": {
      "content": 0.8687172428906028,
      "friend": 0.9136223598156034,
      "network": 0.9114359184790485,
      "sentiment": 0.44326481194077955,
      "temporal": 0.9338450119785222,
      "user": 0.9626027569370663
    },
    "score": 0.9726400642588404,
    "scores": {
      "english": 0.9298669453061029,
      "universal": 0.9726400642588404
    },
    "capScore": 0.9420072835844814,
    "cap": {
      "english": 0.8469348665516686,
      "universal": 0.9420072835844814
    }
  },
  {
    "user": {
      "screen_name": "aykut_tahrler",
      "id_str": "706369575",
      "lang": "tr"
    },
    "categories": {
      "content": 0.2886786744400949,
      "friend": 0.31176327679351756,
      "network": 0.3330414192815422,
      "sentiment": 0.16492680736823384,
      "temporal": 0.2403281187415198,
      "user": 0.10315661431711579
    },
    "score": 0.1701324265302999,
    "scores": {
      "english": 0.25265321740844954,
      "universal": 0.1701324265302999
    },
    "capScore": 0.010164988287386762,
    "cap": {
      "english": 0.018904416758651326,
      "universal": 0.010164988287386762
    }
  },
  {
    "user": {
      "screen_name": "RdmYekta",
      "id_str": "1181372410785914880",
      "lang": "und"
    },
    "categories": {
      "content": 0.8429447378734437,
      "friend": 0.44590549318048317,
      "network": 0.7087556395194691,
      "sentiment": 0.44326481194077955,
      "temporal": 0.9287993913750285,
      "user": 0.835428344786719
    },
    "score": 0.7081126267613624,
    "scores": {
      "english": 0.7064204238004218,
      "universal": 0.7081126267613624
    },
    "capScore": 0.29676876603976116,
    "cap": {
      "english": 0.31925820414416145,
      "universal": 0.29676876603976116
    }
  },
  {
    "user": {
      "screen_name": "Ayaz14858852",
      "id_str": "1181475131987759104",
      "lang": "in"
    },
    "categories": {
      "content": 0.9687615708645774,
      "friend": 0.9136223598156034,
      "network": 0.8997174107027444,
      "sentiment": 0.44326481194077955,
      "temporal": 0.9338450119785222,
      "user": 0.9626027569370663
    },
    "score": 0.9128880255517094,
    "scores": {
      "english": 0.9442739680420996,
      "universal": 0.9128880255517094
    },
    "capScore": 0.7690934561516563,
    "cap": {
      "english": 0.8907577389333563,
      "universal": 0.7690934561516563
    }
  },
  {
    "user": {
      "screen_name": "EbruDem89816591",
      "id_str": "1181874253639106561",
      "lang": "tr"
    },
    "categories": {
      "content": 0.8687172428906028,
      "friend": 0.46944686570330113,
      "network": 0.2575411738142534,
      "sentiment": 0.21000305375796585,
      "temporal": 0.8882002957327816,
      "user": 0.4236854212106324
    },
    "score": 0.4744885412906753,
    "scores": {
      "english": 0.6884177623265628,
      "universal": 0.4744885412906753
    },
    "capScore": 0.08385114734671234,
    "cap": {
      "english": 0.28686866458066024,
      "universal": 0.08385114734671234
    }
  },
  {
    "user": {
      "screen_name": "vekilcengo",
      "id_str": "1179069157868019714",
      "lang": "tr"
    },
    "categories": {
      "content": 0.9204120755415666,
      "friend": 0.8251222260322829,
      "network": 0.9204045927877845,
      "sentiment": 0.32534097668023054,
      "temporal": 0.9603904708957612,
      "user": 0.91663668724278
    },
    "score": 0.9318767534287423,
    "scores": {
      "english": 0.9298669453061029,
      "universal": 0.9318767534287423
    },
    "capScore": 0.8294998725518729,
    "cap": {
      "english": 0.8469348665516686,
      "universal": 0.8294998725518729
    }
  },
  {
    "user": {
      "screen_name": "Tark05107748",
      "id_str": "1142850041410924544",
      "lang": "tr"
    },
    "categories": {
      "content": 0.9724696226983075,
      "friend": 0.9136223598156034,
      "network": 0.9114359184790485,
      "sentiment": 0.44326481194077955,
      "temporal": 0.9338450119785222,
      "user": 0.9626027569370663
    },
    "score": 0.9726400642588404,
    "scores": {
      "english": 0.9875875115922786,
      "universal": 0.9726400642588404
    },
    "capScore": 0.9420072835844814,
    "cap": {
      "english": 0.9766339623971294,
      "universal": 0.9420072835844814
    }
  },
  {
    "user": {
      "screen_name": "ozhan8",
      "id_str": "360506164",
      "lang": "tr"
    },
    "categories": {
      "content": 0.9724696226983075,
      "friend": 0.9136223598156034,
      "network": 0.9114359184790485,
      "sentiment": 0.44326481194077955,
      "temporal": 0.9338450119785222,
      "user": 0.9626027569370663
    },
    "score": 0.9726400642588404,
    "scores": {
      "english": 0.9875875115922786,
      "universal": 0.9726400642588404
    },
    "capScore": 0.9420072835844814,
    "cap": {
      "english": 0.9766339623971294,
      "universal": 0.9420072835844814
    }
  },
  {
    "user": {
      "screen_name": "byraamo",
      "id_str": "1162437733614325760",
      "lang": "fr"
    },
    "categories": {
      "content": 0.9095691359675128,
      "friend": 0.8436115245501081,
      "network": 0.8783896560796345,
      "sentiment": 0.9198231501139013,
      "temporal": 0.9245895135935113,
      "user": 0.9223557369145499
    },
    "score": 0.6908019160064479,
    "scores": {
      "english": 0.8138717339737572,
      "universal": 0.6908019160064479
    },
    "capScore": 0.26968322684725654,
    "cap": {
      "english": 0.5387761106184944,
      "universal": 0.26968322684725654
    }
  },
  {
    "user": {
      "screen_name": "Mars94199626",
      "id_str": "1101797595247202304",
      "lang": "ar"
    },
    "categories": {
      "content": 0.946174528632784,
      "friend": 0.8828924672020038,
      "network": 0.8208121900918158,
      "sentiment": 0.44326481194077955,
      "temporal": 0.9154774806186731,
      "user": 0.8819524564335114
    },
    "score": 0.9369230763705965,
    "scores": {
      "english": 0.9491151251673986,
      "universal": 0.9369230763705965
    },
    "capScore": 0.845413117578195,
    "cap": {
      "english": 0.9042706647192291,
      "universal": 0.845413117578195
    }
  },
  {
    "user": {
      "screen_name": "ahmad_issa9",
      "id_str": "1161733806413570048",
      "lang": "und"
    },
    "categories": {
      "content": 0.48972507824046796,
      "friend": 0.9136223598156034,
      "network": 0.9114359184790485,
      "sentiment": 0.44326481194077955,
      "temporal": 0.4603148114740416,
      "user": 0.8971204796563997
    },
    "score": 0.7713044789889335,
    "scores": {
      "english": 0.380551857066998,
      "universal": 0.7713044789889335
    },
    "capScore": 0.4158259511579834,
    "cap": {
      "english": 0.046773782504080826,
      "universal": 0.4158259511579834
    }
  },
  {
    "user": {
      "screen_name": "Tolgaha28436030",
      "id_str": "1181876114521763840",
      "lang": "und"
    },
    "categories": {
      "content": 0.9724696226983075,
      "friend": 0.9136223598156034,
      "network": 0.9114359184790485,
      "sentiment": 0.44326481194077955,
      "temporal": 0.9338450119785222,
      "user": 0.9626027569370663
    },
    "score": 0.9726400642588404,
    "scores": {
      "english": 0.9875875115922786,
      "universal": 0.9726400642588404
    },
    "capScore": 0.9420072835844814,
    "cap": {
      "english": 0.9766339623971294,
      "universal": 0.9420072835844814
    }
  },
  {
    "user": {
      "screen_name": "KadirCiwan",
      "id_str": "1181872526512852997",
      "lang": "tr"
    },
    "categories": {
      "content": 0.7543611404326654,
      "friend": 0.9136223598156034,
      "network": 0.8997174107027444,
      "sentiment": 0.914772950568811,
      "temporal": 0.9338450119785222,
      "user": 0.9626027569370663
    },
    "score": 0.9128880255517094,
    "scores": {
      "english": 0.960149429127191,
      "universal": 0.9128880255517094
    },
    "capScore": 0.7690934561516563,
    "cap": {
      "english": 0.9318137107770661,
      "universal": 0.7690934561516563
    }
  },
  {
    "user": {
      "screen_name": "mihniolea",
      "id_str": "3664946657",
      "lang": "und"
    },
    "categories": {
      "content": 0.9101067207817184,
      "friend": 0.9136223598156034,
      "network": 0.9114359184790485,
      "sentiment": 0.44326481194077955,
      "temporal": 0.9338450119785222,
      "user": 0.9626027569370663
    },
    "score": 0.9726400642588404,
    "scores": {
      "english": 0.9470261822603973,
      "universal": 0.9726400642588404
    },
    "capScore": 0.9420072835844814,
    "cap": {
      "english": 0.8985342530509495,
      "universal": 0.9420072835844814
    }
  },
  {
    "user": {
      "screen_name": "Menna____A",
      "id_str": "1177622170463289344",
      "lang": "ar"
    },
    "categories": {
      "content": 0.2745623199827842,
      "friend": 0.27037007428252813,
      "network": 0.12243135948738738,
      "sentiment": 0.29120636489449797,
      "temporal": 0.07065949417431958,
      "user": 0.6675474367262662
    },
    "score": 0.6908019160064479,
    "scores": {
      "english": 0.44245148142042123,
      "universal": 0.6908019160064479
    },
    "capScore": 0.26968322684725654,
    "cap": {
      "english": 0.06706338835674493,
      "universal": 0.26968322684725654
    }
  },
  {
    "user": {
      "screen_name": "ArsuNurullah",
      "id_str": "1181875173563211777",
      "lang": "und"
    },
    "categories": {
      "content": 0.9101067207817184,
      "friend": 0.9136223598156034,
      "network": 0.9114359184790485,
      "sentiment": 0.44326481194077955,
      "temporal": 0.9338450119785222,
      "user": 0.9626027569370663
    },
    "score": 0.9726400642588404,
    "scores": {
      "english": 0.9470261822603973,
      "universal": 0.9726400642588404
    },
    "capScore": 0.9420072835844814,
    "cap": {
      "english": 0.8985342530509495,
      "universal": 0.9420072835844814
    }
  },
  {
    "user": {
      "screen_name": "GkhanKa79795460",
      "id_str": "1181873782006394880",
      "lang": "tr"
    },
    "categories": {
      "content": 0.8974136177351747,
      "friend": 0.9136223598156034,
      "network": 0.9098136073065485,
      "sentiment": 0.9171993204115726,
      "temporal": 0.9467647972995286,
      "user": 0.8245245941131142
    },
    "score": 0.8669901931103381,
    "scores": {
      "english": 0.8138717339737572,
      "universal": 0.8669901931103381
    },
    "capScore": 0.6366637042669882,
    "cap": {
      "english": 0.5387761106184944,
      "universal": 0.6366637042669882
    }
  },
  {
    "user": {
      "screen_name": "aykirikhatun",
      "id_str": "1180436519468879872",
      "lang": "tr"
    },
    "categories": {
      "content": 0.07537533685491266,
      "friend": 0.10612616098731911,
      "network": 0.15895834190828398,
      "sentiment": 0.1559590986380373,
      "temporal": 0.13070541319115236,
      "user": 0.732290531776004
    },
    "score": 0.49505756400804624,
    "scores": {
      "english": 0.23688377651035014,
      "universal": 0.49505756400804624
    },
    "capScore": 0.09360841931572118,
    "cap": {
      "english": 0.016566752245969804,
      "universal": 0.09360841931572118
    }
  },
  {
    "user": {
      "screen_name": "emlakmanset",
      "id_str": "2940460528",
      "lang": "tr"
    },
    "categories": {
      "content": 0.09132630551584263,
      "friend": 0.1594575816736603,
      "network": 0.15895834190828398,
      "sentiment": 0.12401293195790808,
      "temporal": 0.11098691236375971,
      "user": 0.046849713674902205
    },
    "score": 0.13802618960216584,
    "scores": {
      "english": 0.05780718298413593,
      "universal": 0.13802618960216584
    },
    "capScore": 0.007183846426565749,
    "cap": {
      "english": 0.0020801266669107617,
      "universal": 0.007183846426565749
    }
  },
  {
    "user": {
      "screen_name": "Orhan26i",
      "id_str": "2964667288",
      "lang": "fr"
    },
    "categories": {
      "content": 0.19935698741177266,
      "friend": 0.46944686570330113,
      "network": 0.30663396167181256,
      "sentiment": 0.22750028811607503,
      "temporal": 0.44495816118757403,
      "user": 0.11836010092699796
    },
    "score": 0.3742667881821624,
    "scores": {
      "english": 0.13558257714003935,
      "universal": 0.3742667881821624
    },
    "capScore": 0.04861529098537897,
    "cap": {
      "english": 0.0060434470460022415,
      "universal": 0.04861529098537897
    }
  },
  {
    "user": {
      "screen_name": "bilinsinistedim",
      "id_str": "1158642345191071744",
      "lang": "tr"
    },
    "categories": {
      "content": 0.653282836412424,
      "friend": 0.6931671803923964,
      "network": 0.3330414192815422,
      "sentiment": 0.6552117545583558,
      "temporal": 0.34186854357920926,
      "user": 0.9374187647265102
    },
    "score": 0.6164280626387617,
    "scores": {
      "english": 0.6506901031179089,
      "universal": 0.6164280626387617
    },
    "capScore": 0.18030310025096605,
    "cap": {
      "english": 0.22851217352302083,
      "universal": 0.18030310025096605
    }
  },
  {
    "user": {
      "screen_name": "mqadeer45",
      "id_str": "840170608478543873",
      "lang": "en"
    },
    "categories": {
      "content": 0.8132006900612991,
      "friend": 0.5028849045289483,
      "network": 0.17587382879766314,
      "sentiment": 0.9037999247617949,
      "temporal": 0.8287203711099925,
      "user": 0.06275738326653418
    },
    "score": 0.5061919589474342,
    "scores": {
      "english": 0.5061919589474342,
      "universal": 0.1701324265302999
    },
    "capScore": 0.09741389119048932,
    "cap": {
      "english": 0.09741389119048932,
      "universal": 0.010164988287386762
    }
  },
  {
    "user": {
      "screen_name": "BultenKarabuk",
      "id_str": "1180458525279043596",
      "lang": "tr"
    },
    "categories": {
      "content": 0.9277506308997381,
      "friend": 0.9136223598156034,
      "network": 0.9098136073065485,
      "sentiment": 0.44326481194077955,
      "temporal": 0.9338450119785222,
      "user": 0.9626027569370663
    },
    "score": 0.986117751433109,
    "scores": {
      "english": 0.9632891569033074,
      "universal": 0.986117751433109
    },
    "capScore": 0.9670261466915275,
    "cap": {
      "english": 0.9387063146650295,
      "universal": 0.9670261466915275
    }
  },
  {
    "user": {
      "screen_name": "HBordeby",
      "id_str": "1178709778153005059",
      "lang": "und"
    },
    "categories": {
      "content": 0.9437740436536376,
      "friend": 0.9136223598156034,
      "network": 0.8997174107027444,
      "sentiment": 0.44326481194077955,
      "temporal": 0.9338450119785222,
      "user": 0.9626027569370663
    },
    "score": 0.9128880255517094,
    "scores": {
      "english": 0.9317271668990034,
      "universal": 0.9128880255517094
    },
    "capScore": 0.7690934561516563,
    "cap": {
      "english": 0.8528135697032126,
      "universal": 0.7690934561516563
    }
  },
  {
    "user": {
      "screen_name": "BurakCanEROL1",
      "id_str": "1181868049844068352",
      "lang": "tr"
    },
    "categories": {
      "content": 0.7952648316625804,
      "friend": 0.7830678572164844,
      "network": 0.9044902815545797,
      "sentiment": 0.44326481194077955,
      "temporal": 0.9075900666606278,
      "user": 0.9626027569370663
    },
    "score": 0.9698483553916354,
    "scores": {
      "english": 0.9736247158244454,
      "universal": 0.9698483553916354
    },
    "capScore": 0.9359627944189242,
    "cap": {
      "english": 0.958167114593664,
      "universal": 0.9359627944189242
    }
  },
  {
    "user": {
      "screen_name": "BeyzaYI89779667",
      "id_str": "1181869578110095361",
      "lang": "und&und&tr"
    },
    "categories": {
      "content": 0.91344500888449,
      "friend": 0.860476553892247,
      "network": 0.9044902815545797,
      "sentiment": 0.12227177988179642,
      "temporal": 0.9394864048432044,
      "user": 0.9040382507554688
    },
    "score": 0.9060076593122626,
    "scores": {
      "english": 0.8462849782917475,
      "universal": 0.9060076593122626
    },
    "capScore": 0.7476845954463311,
    "cap": {
      "english": 0.6084039317630237,
      "universal": 0.7476845954463311
    }
  },
  {
    "user": {
      "screen_name": "HacerSarda1",
      "id_str": "1181869852274970624",
      "lang": "tr"
    },
    "categories": {
      "content": 0.9596543643937352,
      "friend": 0.9136223598156034,
      "network": 0.8997174107027444,
      "sentiment": 0.44326481194077955,
      "temporal": 0.9338450119785222,
      "user": 0.9626027569370663
    },
    "score": 0.9128880255517094,
    "scores": {
      "english": 0.9688694437075864,
      "universal": 0.9128880255517094
    },
    "capScore": 0.7690934561516563,
    "cap": {
      "english": 0.9498370218344945,
      "universal": 0.7690934561516563
    }
  },
  {
    "user": {
      "screen_name": "virgilvandik1",
      "id_str": "1001467435793436672",
      "lang": "tr"
    },
    "categories": {
      "content": 0.398120617474611,
      "friend": 0.28377891723734483,
      "network": 0.22427046334856154,
      "sentiment": 0.2644995892927827,
      "temporal": 0.11098691236375971,
      "user": 0.3682960582889338
    },
    "score": 0.06078011352084069,
    "scores": {
      "english": 0.16847316644464133,
      "universal": 0.06078011352084069
    },
    "capScore": 0.0027296301902785666,
    "cap": {
      "english": 0.008750694009244317,
      "universal": 0.0027296301902785666
    }
  },
  {
    "user": {
      "screen_name": "MetinKISA10",
      "id_str": "1181869108322799616",
      "lang": "tr"
    },
    "categories": {
      "content": 0.6673689189567961,
      "friend": 0.9136223598156034,
      "network": 0.8997174107027444,
      "sentiment": 0.9373976589121485,
      "temporal": 0.9338450119785222,
      "user": 0.9626027569370663
    },
    "score": 0.9128880255517094,
    "scores": {
      "english": 0.8138717339737572,
      "universal": 0.9128880255517094
    },
    "capScore": 0.7690934561516563,
    "cap": {
      "english": 0.5387761106184944,
      "universal": 0.7690934561516563
    }
  },
  {
    "user": {
      "screen_name": "karasevili",
      "id_str": "926865037",
      "lang": "tr"
    },
    "categories": {
      "content": 0.07537533685491266,
      "friend": 0.12674184134165853,
      "network": 0.12243135948738738,
      "sentiment": 0.05985886859558471,
      "temporal": 0.3848494626356174,
      "user": 0.1649843520988115
    },
    "score": 0.13802618960216584,
    "scores": {
      "english": 0.20742796687543463,
      "universal": 0.13802618960216584
    },
    "capScore": 0.007183846426565749,
    "cap": {
      "english": 0.012788431177246198,
      "universal": 0.007183846426565749
    }
  },
  {
    "user": {
      "screen_name": "Hysam27491271",
      "id_str": "1105810054769455109",
      "lang": "ar"
    },
    "categories": {
      "content": 0.9528558613744543,
      "friend": 0.9136223598156034,
      "network": 0.9120808691738869,
      "sentiment": 0.44326481194077955,
      "temporal": 0.9338450119785222,
      "user": 0.9626027569370663
    },
    "score": 0.986117751433109,
    "scores": {
      "english": 0.9811074746959428,
      "universal": 0.986117751433109
    },
    "capScore": 0.9670261466915275,
    "cap": {
      "english": 0.969139670602045,
      "universal": 0.9670261466915275
    }
  },
  {
    "user": {
      "screen_name": "MERVEBANARLI",
      "id_str": "347863924",
      "lang": "tr"
    },
    "categories": {
      "content": 0.8167086389244117,
      "friend": 0.9136223598156034,
      "network": 0.8997174107027444,
      "sentiment": 0.44326481194077955,
      "temporal": 0.9338450119785222,
      "user": 0.9626027569370663
    },
    "score": 0.9128880255517094,
    "scores": {
      "english": 0.826453203646374,
      "universal": 0.9128880255517094
    },
    "capScore": 0.7690934561516563,
    "cap": {
      "english": 0.5650534221025286,
      "universal": 0.7690934561516563
    }
  },
  {
    "user": {
      "screen_name": "IslamicArmy5",
      "id_str": "1181867506513920005",
      "lang": "en"
    },
    "categories": {
      "content": 0.9587440052841777,
      "friend": 0.9136223598156034,
      "network": 0.9109262137085177,
      "sentiment": 0.9198231501139013,
      "temporal": 0.09933141881781246,
      "user": 0.8010272684461975
    },
    "score": 0.7565854729457974,
    "scores": {
      "english": 0.7565854729457974,
      "universal": 0.7564524646655568
    },
    "capScore": 0.42020504633925215,
    "cap": {
      "english": 0.42020504633925215,
      "universal": 0.38545888128841016
    }
  },
  {
    "user": {
      "screen_name": "Basil13e",
      "id_str": "1007778938763005953",
      "lang": "ar"
    },
    "categories": {
      "content": 0.6044735474026068,
      "friend": 0.7594616003286809,
      "network": 0.8100898038750541,
      "sentiment": 0.44326481194077955,
      "temporal": 0.9201521175653773,
      "user": 0.9327282927820728
    },
    "score": 0.9416190049861709,
    "scores": {
      "english": 0.7719542327261165,
      "universal": 0.9416190049861709
    },
    "capScore": 0.8599563872510622,
    "cap": {
      "english": 0.45227900229523627,
      "universal": 0.8599563872510622
    }
  },
  {
    "user": {
      "screen_name": "ArslanQaisrani4",
      "id_str": "1130254299613847553",
      "lang": "en"
    },
    "categories": {
      "content": 0.925376551506487,
      "friend": 0.7830678572164844,
      "network": 0.6412244274526366,
      "sentiment": 0.9373976589121485,
      "temporal": 0.8942092045579565,
      "user": 0.8010272684461975
    },
    "score": 0.8005982245473489,
    "scores": {
      "english": 0.8005982245473489,
      "universal": 0.8572017689651149
    },
    "capScore": 0.5114515477139734,
    "cap": {
      "english": 0.5114515477139734,
      "universal": 0.611464313617347
    }
  },
  {
    "user": {
      "screen_name": "VarcErcan",
      "id_str": "1180909098482749441",
      "lang": "tr"
    },
    "categories": {
      "content": 0.9344607038133298,
      "friend": 0.9233513194315551,
      "network": 0.9298560009832312,
      "sentiment": 0.19916894311434102,
      "temporal": 0.9579639409257655,
      "user": 0.4426603739560624
    },
    "score": 0.9500427150733608,
    "scores": {
      "english": 0.9240939964164224,
      "universal": 0.9500427150733608
    },
    "capScore": 0.8850402072644973,
    "cap": {
      "english": 0.8284585039985664,
      "universal": 0.8850402072644973
    }
  },
  {
    "user": {
      "screen_name": "furkanaldanma",
      "id_str": "1032374105121730561",
      "lang": "tr"
    },
    "categories": {
      "content": 0.2608830846741331,
      "friend": 0.6177965951804668,
      "network": 0.19417378634394186,
      "sentiment": 0.5603273178885865,
      "temporal": 0.6421663607192841,
      "user": 0.13546586015102946
    },
    "score": 0.14812070832967303,
    "scores": {
      "english": 0.16847316644464133,
      "universal": 0.14812070832967303
    },
    "capScore": 0.008048111281043234,
    "cap": {
      "english": 0.008750694009244317,
      "universal": 0.008048111281043234
    }
  },
  {
    "user": {
      "screen_name": "mamin197",
      "id_str": "1094556501098651648",
      "lang": "in"
    },
    "categories": {
      "content": 0.8519642197607085,
      "friend": 0.40367530186124856,
      "network": 0.9441367334722985,
      "sentiment": 0.9037999247617949,
      "temporal": 0.7801680418350263,
      "user": 0.9327282927820728
    },
    "score": 0.7081126267613624,
    "scores": {
      "english": 0.826453203646374,
      "universal": 0.7081126267613624
    },
    "capScore": 0.29676876603976116,
    "cap": {
      "english": 0.5650534221025286,
      "universal": 0.29676876603976116
    }
  },
  {
    "user": {
      "screen_name": "Busra_Thtc25",
      "id_str": "1093772537006379015",
      "lang": "tr"
    },
    "categories": {
      "content": 0.8519642197607085,
      "friend": 0.552900490202155,
      "network": 0.81630320144921,
      "sentiment": 0.36433814046959456,
      "temporal": 0.10501652361101936,
      "user": 0.1447753806822323
    },
    "score": 0.22179568769021463,
    "scores": {
      "english": 0.42151725890598224,
      "universal": 0.22179568769021463
    },
    "capScore": 0.01645230483113907,
    "cap": {
      "english": 0.05942480200270631,
      "universal": 0.01645230483113907
    }
  },
  {
    "user": {
      "screen_name": "FatihOgurlu3",
      "id_str": "1181868059931398145",
      "lang": "en&en&und&tr"
    },
    "categories": {
      "content": 0.9496199744583083,
      "friend": 0.9136223598156034,
      "network": 0.8997174107027444,
      "sentiment": 0.9543162647140411,
      "temporal": 0.8882002957327816,
      "user": 0.8130600669454235
    },
    "score": 0.8964140695210783,
    "scores": {
      "english": 0.8964140695210783,
      "universal": 0.6729387518017023
    },
    "capScore": 0.7405226576973513,
    "cap": {
      "english": 0.7405226576973513,
      "universal": 0.24446254495086733
    }
  },
  {
    "user": {
      "screen_name": "Mesut26056292",
      "id_str": "1181525724768980997",
      "lang": "tr"
    },
    "categories": {
      "content": 0.7871962325816592,
      "friend": 0.9136223598156034,
      "network": 0.8997174107027444,
      "sentiment": 0.9481458634491251,
      "temporal": 0.9338450119785222,
      "user": 0.9626027569370663
    },
    "score": 0.9128880255517094,
    "scores": {
      "english": 0.9240939964164224,
      "universal": 0.9128880255517094
    },
    "capScore": 0.7690934561516563,
    "cap": {
      "english": 0.8284585039985664,
      "universal": 0.7690934561516563
    }
  },
  {
    "user": {
      "screen_name": "Firdevs84867752",
      "id_str": "1180499781300477952",
      "lang": "und"
    },
    "categories": {
      "content": 0.7135417689682637,
      "friend": 0.8345738828646233,
      "network": 0.9352793185787517,
      "sentiment": 0.44326481194077955,
      "temporal": 0.9467647972995286,
      "user": 0.7168692336175605
    },
    "score": 0.7409598586102422,
    "scores": {
      "english": 0.6698271269837389,
      "universal": 0.7409598586102422
    },
    "capScore": 0.35515431108103784,
    "cap": {
      "english": 0.2564674002687074,
      "universal": 0.35515431108103784
    }
  },
  {
    "user": {
      "screen_name": "RoudinMohamad",
      "id_str": "1092412928995872769",
      "lang": "ar"
    },
    "categories": {
      "content": 0.6990675140761496,
      "friend": 0.2208783213499726,
      "network": 0.07904647486470226,
      "sentiment": 0.7391519550142258,
      "temporal": 0.18834180907135,
      "user": 0.972263009384683
    },
    "score": 0.7409598586102422,
    "scores": {
      "english": 0.40086139116347386,
      "universal": 0.7409598586102422
    },
    "capScore": 0.35515431108103784,
    "cap": {
      "english": 0.05272348371475359,
      "universal": 0.35515431108103784
    }
  },
  {
    "user": {
      "screen_name": "Yunus91791673",
      "id_str": "1175356623159746560",
      "lang": "tr"
    },
    "categories": {
      "content": 0.6210311189201865,
      "friend": 0.5028849045289483,
      "network": 0.8070225347710263,
      "sentiment": 0.6988434987107437,
      "temporal": 0.9603904708957612,
      "user": 0.577046616828888
    },
    "score": 0.6729387518017023,
    "scores": {
      "english": 0.46359219069702307,
      "universal": 0.6729387518017023
    },
    "capScore": 0.24446254495086733,
    "cap": {
      "english": 0.07583235670880943,
      "universal": 0.24446254495086733
    }
  },
  {
    "user": {
      "screen_name": "HalilBiyik7",
      "id_str": "1173671270543777792",
      "lang": "tr&tr&und"
    },
    "categories": {
      "content": 0.57066541132616,
      "friend": 0.31176327679351756,
      "network": 0.8954308958576392,
      "sentiment": 0.44326481194077955,
      "temporal": 0.9526782215068578,
      "user": 0.7884215012480346
    },
    "score": 0.8929942165253121,
    "scores": {
      "english": 0.826453203646374,
      "universal": 0.8929942165253121
    },
    "capScore": 0.7086116865750549,
    "cap": {
      "english": 0.5650534221025286,
      "universal": 0.7086116865750549
    }
  },
  {
    "user": {
      "screen_name": "GokteYerde",
      "id_str": "1181867859082973184",
      "lang": "und&tr"
    },
    "categories": {
      "content": 0.7670620645190885,
      "friend": 0.7594616003286809,
      "network": 0.9138313920578487,
      "sentiment": 0.44326481194077955,
      "temporal": 0.9316724636758876,
      "user": 0.8010272684461975
    },
    "score": 0.7713044789889335,
    "scores": {
      "english": 0.8794616900661685,
      "universal": 0.7713044789889335
    },
    "capScore": 0.4158259511579834,
    "cap": {
      "english": 0.6913231693056707,
      "universal": 0.4158259511579834
    }
  },
  {
    "user": {
      "screen_name": "kusnadikomar64",
      "id_str": "3660410599",
      "lang": "in"
    },
    "categories": {
      "content": 0.9496199744583083,
      "friend": 0.860476553892247,
      "network": 0.9146636233146109,
      "sentiment": 0.6087972435240742,
      "temporal": 0.9105557730678253,
      "user": 0.9497188594610967
    },
    "score": 0.9206457832445352,
    "scores": {
      "english": 0.9240939964164224,
      "universal": 0.9206457832445352
    },
    "capScore": 0.7936717511946978,
    "cap": {
      "english": 0.8284585039985664,
      "universal": 0.7936717511946978
    }
  },
  {
    "user": {
      "screen_name": "Kenan79160614",
      "id_str": "1181867674932056064",
      "lang": "und"
    },
    "categories": {
      "content": 0.8430838108226466,
      "friend": 0.9136223598156034,
      "network": 0.9114359184790485,
      "sentiment": 0.44326481194077955,
      "temporal": 0.9338450119785222,
      "user": 0.9626027569370663
    },
    "score": 0.9726400642588404,
    "scores": {
      "english": 0.8344132986249644,
      "universal": 0.9726400642588404
    },
    "capScore": 0.9420072835844814,
    "cap": {
      "english": 0.5820825129374635,
      "universal": 0.9420072835844814
    }
  },
  {
    "user": {
      "screen_name": "samadmhamad1",
      "id_str": "838802283827761157",
      "lang": "ar"
    },
    "categories": {
      "content": 0.518792632027541,
      "friend": 0.12674184134165853,
      "network": 0.269321703125012,
      "sentiment": 0.6245365843296518,
      "temporal": 0.3013364147732675,
      "user": 0.22528173716160113
    },
    "score": 0.08899515596679244,
    "scores": {
      "english": 0.4848645828256039,
      "universal": 0.08899515596679244
    },
    "capScore": 0.003940623559956331,
    "cap": {
      "english": 0.08590409243653727,
      "universal": 0.003940623559956331
    }
  },
  {
    "user": {
      "screen_name": "purtas_ayhan",
      "id_str": "1181605580458352640",
      "lang": "tr"
    },
    "categories": {
      "content": 0.913507682046981,
      "friend": 0.8522428331103449,
      "network": 0.8783896560796345,
      "sentiment": 0.5516729745109058,
      "temporal": 0.9287993913750285,
      "user": 0.9701008212858266
    },
    "score": 0.9538100696537478,
    "scores": {
      "english": 0.966190224001528,
      "universal": 0.9538100696537478
    },
    "capScore": 0.8957037411447732,
    "cap": {
      "english": 0.9446742630045359,
      "universal": 0.8957037411447732
    }
  },
  {
    "user": {
      "screen_name": "nobelstaid",
      "id_str": "1171548266380636160",
      "lang": "en"
    },
    "categories": {
      "content": 0.7135417689682637,
      "friend": 0.14231741345274818,
      "network": 0.6271387281598632,
      "sentiment": 0.7126698432322394,
      "temporal": 0.9201521175653773,
      "user": 0.732290531776004
    },
    "score": 0.7238002465135849,
    "scores": {
      "english": 0.7238002465135849,
      "universal": 0.5768086562548855
    },
    "capScore": 0.3528904417922491,
    "cap": {
      "english": 0.3528904417922491,
      "universal": 0.14577620294303828
    }
  },
  {
    "user": {
      "screen_name": "qroniqson",
      "id_str": "1176892440302821377",
      "lang": "tr"
    },
    "categories": {
      "content": 0.05438011880405991,
      "friend": 0.37189887476501904,
      "network": 0.0986345549376349,
      "sentiment": 0.07672623520232581,
      "temporal": 0.09933141881781246,
      "user": 0.3682960582889338
    },
    "score": 0.6164280626387617,
    "scores": {
      "english": 0.32230602190830704,
      "universal": 0.6164280626387617
    },
    "capScore": 0.18030310025096605,
    "cap": {
      "english": 0.032183220269696264,
      "universal": 0.18030310025096605
    }
  },
  {
    "user": {
      "screen_name": "HalwestChomani7",
      "id_str": "746319003094757376",
      "lang": "en"
    },
    "categories": {
      "content": 0.876473536481824,
      "friend": 0.7470192677961655,
      "network": 0.6686586798365749,
      "sentiment": 0.88497492293399,
      "temporal": 0.8942092045579565,
      "user": 0.5580793093167888
    },
    "score": 0.6884177623265628,
    "scores": {
      "english": 0.6884177623265628,
      "universal": 0.49505756400804624
    },
    "capScore": 0.28686866458066024,
    "cap": {
      "english": 0.28686866458066024,
      "universal": 0.09360841931572118
    }
  },
  {
    "user": {
      "screen_name": "bucak_dogukan",
      "id_str": "1181865067958145024",
      "lang": "tr"
    },
    "categories": {
      "content": 0.9204120755415666,
      "friend": 0.9136223598156034,
      "network": 0.8404868534124578,
      "sentiment": 0.44326481194077955,
      "temporal": 0.9603904708957612,
      "user": 0.8245245941131142
    },
    "score": 0.5316214271564083,
    "scores": {
      "english": 0.7405291005715704,
      "universal": 0.5316214271564083
    },
    "capScore": 0.11407651232823915,
    "cap": {
      "english": 0.3868425932473016,
      "universal": 0.11407651232823915
    }
  },
  {
    "user": {
      "screen_name": "Tevfike00588039",
      "id_str": "1181866361980633088",
      "lang": "tr"
    },
    "categories": {
      "content": 0.9639245827025941,
      "friend": 0.6177965951804668,
      "network": 0.5085472613356273,
      "sentiment": 0.1442018688261501,
      "temporal": 0.8611096213916619,
      "user": 0.6501782539066243
    },
    "score": 0.8468202684509261,
    "scores": {
      "english": 0.8495856011768973,
      "universal": 0.8468202684509261
    },
    "capScore": 0.5856427244085384,
    "cap": {
      "english": 0.6159726892215056,
      "universal": 0.5856427244085384
    }
  },
  {
    "user": {
      "screen_name": "MohamedAldulai6",
      "id_str": "1181858714942353408",
      "lang": "ar"
    },
    "categories": {
      "content": 0.4578383461644135,
      "friend": 0.9136223598156034,
      "network": 0.8803155785148558,
      "sentiment": 0.44326481194077955,
      "temporal": 0.9338450119785222,
      "user": 0.9626027569370663
    },
    "score": 0.11662792689320306,
    "scores": {
      "english": 0.6109757209767682,
      "universal": 0.11662792689320306
    },
    "capScore": 0.005575180064318956,
    "cap": {
      "english": 0.18036203754175442,
      "universal": 0.005575180064318956
    }
  },
  {
    "user": {
      "screen_name": "omursever54",
      "id_str": "2221915540",
      "lang": "tr"
    },
    "categories": {
      "content": 0.8023673025118855,
      "friend": 0.9536641828909828,
      "network": 0.92505276492168,
      "sentiment": 0.8187189876392054,
      "temporal": 0.9596142623393261,
      "user": 0.9626027569370663
    },
    "score": 0.5840564804082958,
    "scores": {
      "english": 0.8138717339737572,
      "universal": 0.5840564804082958
    },
    "capScore": 0.15158546311543217,
    "cap": {
      "english": 0.5387761106184944,
      "universal": 0.15158546311543217
    }
  },
  {
    "user": {
      "screen_name": "SCMehmetAg",
      "id_str": "1181864135446990848",
      "lang": "tr"
    },
    "categories": {
      "content": 0.9386073163011215,
      "friend": 0.4528115161418039,
      "network": 0.8420635376066168,
      "sentiment": 0.8187189876392054,
      "temporal": 0.8197415467014104,
      "user": 0.4426603739560624
    },
    "score": 0.6908019160064479,
    "scores": {
      "english": 0.826453203646374,
      "universal": 0.6908019160064479
    },
    "capScore": 0.26968322684725654,
    "cap": {
      "english": 0.5650534221025286,
      "universal": 0.26968322684725654
    }
  },
  {
    "user": {
      "screen_name": "LeIQXF0KhkEBRHe",
      "id_str": "1180875402551730177",
      "lang": "ar"
    },
    "categories": {
      "content": 0.7762830918000238,
      "friend": 0.9136223598156034,
      "network": 0.9114359184790485,
      "sentiment": 0.44326481194077955,
      "temporal": 0.9338450119785222,
      "user": 0.9626027569370663
    },
    "score": 0.9726400642588404,
    "scores": {
      "english": 0.5274968237537414,
      "universal": 0.9726400642588404
    },
    "capScore": 0.9420072835844814,
    "cap": {
      "english": 0.11046376827194711,
      "universal": 0.9420072835844814
    }
  },
  {
    "user": {
      "screen_name": "KisilikRmac",
      "id_str": "1181865820630257664",
      "lang": "tr"
    },
    "categories": {
      "content": 0.9528558613744543,
      "friend": 0.48615038795424975,
      "network": 0.8723278009299787,
      "sentiment": 0.44326481194077955,
      "temporal": 0.9278351328224828,
      "user": 0.9105372475500348
    },
    "score": 0.7990584410047699,
    "scores": {
      "english": 0.8882184952163719,
      "universal": 0.7990584410047699
    },
    "capScore": 0.47530138941405353,
    "cap": {
      "english": 0.7161435017477831,
      "universal": 0.47530138941405353
    }
  },
  {
    "user": {
      "screen_name": "Recaiza78216990",
      "id_str": "1181865748161007616",
      "lang": "tr"
    },
    "categories": {
      "content": 0.7792984107057863,
      "friend": 0.9136223598156034,
      "network": 0.5415953495572202,
      "sentiment": 0.8780207807991686,
      "temporal": 0.8535286114881314,
      "user": 0.8130600669454235
    },
    "score": 0.635706839522915,
    "scores": {
      "english": 0.6506901031179089,
      "universal": 0.635706839522915
    },
    "capScore": 0.1998825988113924,
    "cap": {
      "english": 0.22851217352302083,
      "universal": 0.1998825988113924
    }
  },
  {
    "user": {
      "screen_name": "osmndmm",
      "id_str": "1174938793880645640",
      "lang": "tr"
    },
    "categories": {
      "content": 0.9386073163011215,
      "friend": 0.815250091706861,
      "network": 0.9581522866434009,
      "sentiment": 0.7517849984912889,
      "temporal": 0.9579639409257655,
      "user": 0.8245245941131142
    },
    "score": 0.9605484476373263,
    "scores": {
      "english": 0.9448325758058531,
      "universal": 0.9605484476373263
    },
    "capScore": 0.9137095310872202,
    "cap": {
      "english": 0.8923552459086453,
      "universal": 0.9137095310872202
    }
  },
  {
    "user": {
      "screen_name": "HilalBk8",
      "id_str": "1036658230687133702",
      "lang": "tr"
    },
    "categories": {
      "content": 0.9425077174548213,
      "friend": 0.6018678601737769,
      "network": 0.9353071285343671,
      "sentiment": 0.929111844201366,
      "temporal": 0.8535286114881314,
      "user": 0.5957894732961813
    },
    "score": 0.7990584410047699,
    "scores": {
      "english": 0.9352316115657808,
      "universal": 0.7990584410047699
    },
    "capScore": 0.47530138941405353,
    "cap": {
      "english": 0.8637464175145468,
      "universal": 0.47530138941405353
    }
  },
  {
    "user": {
      "screen_name": "moham_89",
      "id_str": "1514450665",
      "lang": "ar"
    },
    "categories": {
      "content": 0.9558935620979178,
      "friend": 0.9136223598156034,
      "network": 0.9132761679807136,
      "sentiment": 0.8915815586257704,
      "temporal": 0.8287203711099925,
      "user": 0.9374187647265102
    },
    "score": 0.9538100696537478,
    "scores": {
      "english": 0.960149429127191,
      "universal": 0.9538100696537478
    },
    "capScore": 0.8957037411447732,
    "cap": {
      "english": 0.9318137107770661,
      "universal": 0.8957037411447732
    }
  },
  {
    "user": {
      "screen_name": "Halit59295301",
      "id_str": "1181819559420014592",
      "lang": "en"
    },
    "categories": {
      "content": 0.5534894514701189,
      "friend": 0.7830678572164844,
      "network": 0.9044902815545797,
      "sentiment": 0.9373976589121485,
      "temporal": 0.9075900666606278,
      "user": 0.9626027569370663
    },
    "score": 0.8794616900661685,
    "scores": {
      "english": 0.8794616900661685,
      "universal": 0.9727956461009334
    },
    "capScore": 0.6913231693056707,
    "cap": {
      "english": 0.6913231693056707,
      "universal": 0.9423353103879488
    }
  },
  {
    "user": {
      "screen_name": "EyriyerOzden",
      "id_str": "1179715294819999744",
      "lang": "tr"
    },
    "categories": {
      "content": 0.8605514135170592,
      "friend": 0.9136223598156034,
      "network": 0.7506107155687227,
      "sentiment": 0.8376535122750902,
      "temporal": 0.9553956626551423,
      "user": 0.4810612908215737
    },
    "score": 0.49505756400804624,
    "scores": {
      "english": 0.5697317833219949,
      "universal": 0.49505756400804624
    },
    "capScore": 0.09360841931572118,
    "cap": {
      "english": 0.14157391067567082,
      "universal": 0.09360841931572118
    }
  },
  {
    "user": {
      "screen_name": "humam57305077",
      "id_str": "1181861063018586113",
      "lang": "tr"
    },
    "categories": {
      "content": 0.5930172182079887,
      "friend": 0.9136223598156034,
      "network": 0.9114359184790485,
      "sentiment": 0.44326481194077955,
      "temporal": 0.9338450119785222,
      "user": 0.9626027569370663
    },
    "score": 0.9726400642588404,
    "scores": {
      "english": 0.9632891569033074,
      "universal": 0.9726400642588404
    },
    "capScore": 0.9420072835844814,
    "cap": {
      "english": 0.9387063146650295,
      "universal": 0.9420072835844814
    }
  },
  {
    "user": {
      "screen_name": "burak82928622",
      "id_str": "1181863409735876618",
      "lang": "tr"
    },
    "categories": {
      "content": 0.9315531107409207,
      "friend": 0.7532931802047859,
      "network": 0.9366628107369741,
      "sentiment": 0.9333742642844758,
      "temporal": 0.9546439452179558,
      "user": 0.9458970743579432
    },
    "score": 0.9663384956410118,
    "scores": {
      "english": 0.9298669453061029,
      "universal": 0.9663384956410118
    },
    "capScore": 0.9279405901296212,
    "cap": {
      "english": 0.8469348665516686,
      "universal": 0.9279405901296212
    }
  },
  {
    "user": {
      "screen_name": "InnocentMerii",
      "id_str": "1181863041589301248",
      "lang": "ur"
    },
    "categories": {
      "content": 0.9662743212665776,
      "friend": 0.6639760039497172,
      "network": 0.8751090666567812,
      "sentiment": 0.9198231501139013,
      "temporal": 0.9053770982922326,
      "user": 0.9374187647265102
    },
    "score": 0.9318767534287423,
    "scores": {
      "english": 0.9298669453061029,
      "universal": 0.9318767534287423
    },
    "capScore": 0.8294998725518729,
    "cap": {
      "english": 0.8469348665516686,
      "universal": 0.8294998725518729
    }
  },
  {
    "user": {
      "screen_name": "RanaSanaullah57",
      "id_str": "808610259585601536",
      "lang": "en"
    },
    "categories": {
      "content": 0.9386073163011215,
      "friend": 0.7942255994986116,
      "network": 0.6271387281598632,
      "sentiment": 0.9543162647140411,
      "temporal": 0.8535286114881314,
      "user": 0.08970732338544227
    },
    "score": 0.380551857066998,
    "scores": {
      "english": 0.380551857066998,
      "universal": 0.3184188561317807
    },
    "capScore": 0.046773782504080826,
    "cap": {
      "english": 0.046773782504080826,
      "universal": 0.03435849422907052
    }
  },
  {
    "user": {
      "screen_name": "MAWMBZI",
      "id_str": "1071760372460384258",
      "lang": "en"
    },
    "categories": {
      "content": 0.6841856000256847,
      "friend": 0.2447797639495201,
      "network": 0.2461023829743841,
      "sentiment": 0.7517849984912889,
      "temporal": 0.1615440070038496,
      "user": 0.38645379058359247
    },
    "score": 0.2691022464970497,
    "scores": {
      "english": 0.2691022464970497,
      "universal": 0.15881746424200632
    },
    "capScore": 0.021603216955146855,
    "cap": {
      "english": 0.021603216955146855,
      "universal": 0.009037049400998034
    }
  },
  {
    "user": {
      "screen_name": "TimurDem3",
      "id_str": "1065000349004632067",
      "lang": "tr"
    },
    "categories": {
      "content": 0.9386073163011215,
      "friend": 0.5362971574454242,
      "network": 0.2461023829743841,
      "sentiment": 0.9333742642844758,
      "temporal": 0.2636844399869036,
      "user": 0.7614881999710486
    },
    "score": 0.6164280626387617,
    "scores": {
      "english": 0.8495856011768973,
      "universal": 0.6164280626387617
    },
    "capScore": 0.18030310025096605,
    "cap": {
      "english": 0.6159726892215056,
      "universal": 0.18030310025096605
    }
  },
  {
    "user": {
      "screen_name": "assosferdi",
      "id_str": "300404482",
      "lang": "tr"
    },
    "categories": {
      "content": 0.9528558613744543,
      "friend": 0.9136223598156034,
      "network": 0.9114359184790485,
      "sentiment": 0.9267677905889591,
      "temporal": 0.9105557730678253,
      "user": 0.9418026024353243
    },
    "score": 0.9006136298589785,
    "scores": {
      "english": 0.9112229533096339,
      "universal": 0.9006136298589785
    },
    "capScore": 0.7312451284333126,
    "cap": {
      "english": 0.7869124820832595,
      "universal": 0.7312451284333126
    }
  },
  {
    "user": {
      "screen_name": "mehmetbalabannn",
      "id_str": "1096660346109087744",
      "lang": "tr"
    },
    "categories": {
      "content": 0.38152299158386926,
      "friend": 0.6931671803923964,
      "network": 0.46307460309651044,
      "sentiment": 0.4940333470863612,
      "temporal": 0.44495816118757403,
      "user": 0.09622220943923888
    },
    "score": 0.6164280626387617,
    "scores": {
      "english": 0.1807672693005155,
      "universal": 0.6164280626387617
    },
    "capScore": 0.18030310025096605,
    "cap": {
      "english": 0.009922300094567935,
      "universal": 0.18030310025096605
    }
  }
]